{
  "name": "Magcargo",
  "nationalPokedexNumber": 219,
  "primaryType": "fire",
  "secondaryType": "rock",
  "abilities": [
    "magmaarmor",
    "flamebody",
    "h:weakarmor"
  ],
  "baseStats": {
    "hp": 60,
    "attack": 50,
    "defence": 120,
    "special_attack": 90,
    "special_defence": 80,
    "speed": 30
  },
  "catchRate": 75,
  "maleRatio": 0.5,
  "shoulderMountable": false,
  "baseExperienceYield": 151,
  "experienceGroup": "medium_fast",
  "eggCycles": 20,
  "eggGroups": [
    "amorphous"
  ],
  "moves": [
    "1:ember",
    "1:rockthrow",
    "1:smog",
    "1:yawn",
    "15:incinerate",
    "20:clearsmog",
    "22:harden",
    "23:flameburst",
    "23:recover",
    "26:ancientpower",
    "29:amnesia",
    "36:flamethrower",
    "38:shellsmash",
    "40:lavaplume",
    "48:rockslide",
    "60:bodyslam",
    "66:earthpower",
    "tm:attract",
    "tm:bulldoze",
    "tm:captivate",
    "tm:confide",
    "tm:doubleteam",
    "tm:earthquake",
    "tm:endure",
    "tm:explosion",
    "tm:facade",
    "tm:fireblast",
    "tm:flamecharge",
    "tm:flamethrower",
    "tm:frustration",
    "tm:gigaimpact",
    "tm:gyroball",
    "tm:hiddenpower",
    "tm:hyperbeam",
    "tm:incinerate",
    "tm:infestation",
    "tm:lightscreen",
    "tm:naturalgift",
    "tm:naturepower",
    "tm:overheat",
    "tm:protect",
    "tm:reflect",
    "tm:rest",
    "tm:return",
    "tm:rockpolish",
    "tm:rockslide",
    "tm:rocksmash",
    "tm:rocktomb",
    "tm:round",
    "tm:sandstorm",
    "tm:secretpower",
    "tm:sleeptalk",
    "tm:smackdown",
    "tm:solarbeam",
    "tm:stealthrock",
    "tm:stoneedge",
    "tm:strength",
    "tm:substitute",
    "tm:sunnyday",
    "tm:swagger",
    "tm:toxic",
    "tm:willowisp",
    "tutor:afteryou",
    "tutor:amnesia",
    "tutor:ancientpower",
    "tutor:attract",
    "tutor:bodyslam",
    "tutor:curse",
    "tutor:defensecurl",
    "tutor:doubleedge",
    "tutor:doubleteam",
    "tutor:earthpower",
    "tutor:earthquake",
    "tutor:ember",
    "tutor:endure",
    "tutor:fireblast",
    "tutor:flamethrower",
    "tutor:frustration",
    "tutor:harden",
    "tutor:heatwave",
    "tutor:hiddenpower",
    "tutor:hyperbeam",
    "tutor:irondefense",
    "tutor:mimic",
    "tutor:mudslap",
    "tutor:painsplit",
    "tutor:protect",
    "tutor:refresh",
    "tutor:rest",
    "tutor:return",
    "tutor:rockslide",
    "tutor:rocksmash",
    "tutor:rockthrow",
    "tutor:rollout",
    "tutor:selfdestruct",
    "tutor:sleeptalk",
    "tutor:smog",
    "tutor:snore",
    "tutor:stealthrock",
    "tutor:stompingtantrum",
    "tutor:strength",
    "tutor:substitute",
    "tutor:sunnyday",
    "tutor:swagger",
    "tutor:toxic"
  ],
  "labels": [
    "gen2"
  ],
  "pokedex": [
    "cobblemon.species.magcargo.desc"
  ],
  "preEvolution": "slugma",
  "evolutions": [],
  "baseScale": 1,
  "hitbox": {
    "width": 1,
    "height": 1,
    "fixed": false
  },
  "baseFriendship": 70,
  "evYield": {
    "hp": 0,
    "attack": 0,
    "defence": 2,
    "special_attack": 0,
    "special_defence": 0,
    "speed": 0
  },
  "height": 8,
  "weight": 550,
  "aspects": [],
  "cannotDynamax": false
}